Introduction to hisafer
…
## $annualtree
## # A tibble: 0 x 0
## 
## $annualcrop
## # A tibble: 0 x 0
## 
## $annualplot
## # A tibble: 0 x 0
## 
## $trees
## # A tibble: 43,832 x 77
## # Groups:   SimulationName [4]
##    SimulationName latitude treeLineOrientation       Date   Day Month
##            <fctr>   <fctr>              <fctr>     <date> <int> <int>
##  1          Sim_1       30                   0 1995-08-28    28     8
##  2          Sim_1       30                   0 1995-08-29    29     8
##  3          Sim_1       30                   0 1995-08-30    30     8
##  4          Sim_1       30                   0 1995-08-31    31     8
##  5          Sim_1       30                   0 1995-09-01     1     9
##  6          Sim_1       30                   0 1995-09-02     2     9
##  7          Sim_1       30                   0 1995-09-03     3     9
##  8          Sim_1       30                   0 1995-09-04     4     9
##  9          Sim_1       30                   0 1995-09-05     5     9
## 10          Sim_1       30                   0 1995-09-06     6     9
## # ... with 43,822 more rows, and 71 more variables: Year <int>,
## #   JulianDay <int>, stepNum <int>, id <int>, carbonAboveGroundEff <dbl>,
## #   aboveGroundCFraction <dbl>, carbonBelowGroundEff <dbl>,
## #   captureFactorForDiffuseNir <dbl>, captureFactorForDiffusePar <dbl>,
## #   captureFactorForDirectNir <dbl>, captureFactorForDirectPar <dbl>,
## #   carbonBranches <dbl>, carbonCoarseRootSen <dbl>,
## #   carbonCoarseRoots <dbl>, carbonFineRootsIncrement <dbl>,
## #   carbonFineRootSen <dbl>, carbonFineRoots <dbl>, carbonFoliage <dbl>,
## #   carbonLabile <dbl>, carbonStem <dbl>, carbonAllocToGrowth <dbl>,
…
## #   nitrogenFineRootsConc <dbl>, nitrogenFoliageConc <dbl>,
## #   nitrogenLabile <dbl>, nitrogenSatisfaction <dbl>,
## #   nitrogenSaturation <dbl>, nitrogenSinkStrength <dbl>,
## #   nitrogenStemConc <dbl>, nitrogenStress <dbl>, nitrogenUptake <dbl>,
## #   nitrogenLeavesSenescence <dbl>, phenologicalStage <int>,
## #   radialPotentialDrop <dbl>, rootingDepth <dbl>, stemVolume <dbl>,
## #   stemflow <dbl>, targetLfrRatio <dbl>, totalRootLength <dbl>,
## #   totalMark <dbl>, totalOptiN <dbl>, dbh <dbl>, height <dbl>,
## #   actualWaterPotential <dbl>, crownRadiusVertical <dbl>,
## #   waterDemand <dbl>, waterDemandReduced <dbl>, evaporationaq <dbl>,
## #   evaporatedRain <dbl>, interceptedRain <dbl>, storedRain <dbl>,
## #   waterStress <dbl>, waterUptake <dbl>
## 
## $plot
## # A tibble: 43,832 x 132
## # Groups:   SimulationName [4]
##    SimulationName latitude treeLineOrientation       Date   Day Month
##            <fctr>   <fctr>              <fctr>     <date> <int> <int>
##  1          Sim_1       30                   0 1995-08-28    28     8
##  2          Sim_1       30                   0 1995-08-29    29     8
##  3          Sim_1       30                   0 1995-08-30    30     8
##  4          Sim_1       30                   0 1995-08-31    31     8
##  5          Sim_1       30                   0 1995-09-01     1     9
##  6          Sim_1       30                   0 1995-09-02     2     9
##  7          Sim_1       30                   0 1995-09-03     3     9
##  8          Sim_1       30                   0 1995-09-04     4     9
##  9          Sim_1       30                   0 1995-09-05     5     9
## 10          Sim_1       30                   0 1995-09-06     6     9
## # ... with 43,822 more rows, and 126 more variables: Year <int>,
## #   JulianDay <int>, stepNum <int>, activeNitHumusStock <dbl>,
## #   qLeafLitter <dbl>, biomassRestitution <dbl>, carbonBranches <dbl>,
## #   carbonHumification <dbl>, carbonImmobilisation <dbl>,
## #   carbonResidus <dbl>, cMicroorgVariation <dbl>, cngrain <dbl>,
## #   cnplante <dbl>, coarserootSenCn <dbl>, cropBiomass <dbl>,
## #   cropGrainNumber <dbl>, cropGrainWeight <dbl>, cropLai <dbl>,
## #   cropNitrogenBiomassStress <dbl>, cropNitrogenDemand <dbl>,
## #   cropNitrogenLaiStress <dbl>, cropNitrogenSenescenceStress <dbl>,
…
## #   nitrogenImmobilisation <dbl>, nitrogenIrrigation <dbl>,
## #   nitrogenLixiviationSTICS <dbl>, nitrogenLixiviationTOTAL <dbl>,
## #   nitrogenOrganisation <dbl>, nitrogenRain <dbl>,
## #   nitrogenResiduMineralisation <dbl>, nitrogenResidus <dbl>,
## #   nitrogenRestitution <dbl>, nitrogenVolatilisation <dbl>,
## #   nMicroorgVariation <dbl>, nminDeepRoots <dbl>, nRootSenStock <dbl>,
## #   parIncident <dbl>, parInterceptedByCrops <dbl>,
## #   parInterceptedByCropsCompetFree <dbl>, parInterceptedByTrees <dbl>,
## #   parInterceptedByTreesCompetFree <dbl>, qCoarseRootSenInProfHum <dbl>,
## #   qFineRootSenInProfHum <dbl>, qngrain <dbl>, qnplante <dbl>,
## #   rainTransmitted <dbl>, runOff <dbl>, surfaceRunOff <dbl>, tmax <dbl>,
## #   tmin <dbl>, ...
## 
## $climate
## # A tibble: 43,832 x 29
## # Groups:   SimulationName [4]
##    SimulationName latitude treeLineOrientation       Date   Day Month
##            <fctr>   <fctr>              <fctr>     <date> <int> <int>
##  1          Sim_1       30                   0 1995-08-28    28     8
##  2          Sim_1       30                   0 1995-08-29    29     8
##  3          Sim_1       30                   0 1995-08-30    30     8
##  4          Sim_1       30                   0 1995-08-31    31     8
##  5          Sim_1       30                   0 1995-09-01     1     9
##  6          Sim_1       30                   0 1995-09-02     2     9
##  7          Sim_1       30                   0 1995-09-03     3     9
##  8          Sim_1       30                   0 1995-09-04     4     9
##  9          Sim_1       30                   0 1995-09-05     5     9
## 10          Sim_1       30                   0 1995-09-06     6     9
## # ... with 43,822 more rows, and 23 more variables: Year <int>,
## #   JulianDay <int>, stepNum <int>, airVapourPressure <dbl>,
## #   airVapourPressureSat <dbl>, dayLength <dbl>, delta <dbl>,
## #   diffusePar <dbl>, directPar <dbl>, etpPenman <dbl>,
## #   extraTerrestrialRadiation <dbl>, globalPar <dbl>,
## #   globalRadiation <dbl>, infraRedRadiation <dbl>,
## #   maxRelativeHumidity <dbl>, maxTemperature <dbl>,
## #   minRelativeHumidity <dbl>, minTemperature <dbl>, rain <dbl>,
## #   sunDeclination <dbl>, airVpd <dbl>, waterTableDepth <dbl>,
## #   windSpeed <dbl>
## 
## $roots
## # A tibble: 0 x 0
## 
## $monthCells
## # A tibble: 168,480 x 27
## # Groups:   SimulationName [4]
##    SimulationName latitude treeLineOrientation       Date   Day Month
##            <fctr>   <fctr>              <fctr>     <date> <int> <int>
##  1          Sim_1       30                   0 1995-09-01     1     9
##  2          Sim_1       30                   0 1995-09-01     1     9
##  3          Sim_1       30                   0 1995-09-01     1     9
##  4          Sim_1       30                   0 1995-09-01     1     9
##  5          Sim_1       30                   0 1995-09-01     1     9
##  6          Sim_1       30                   0 1995-09-01     1     9
##  7          Sim_1       30                   0 1995-09-01     1     9
##  8          Sim_1       30                   0 1995-09-01     1     9
##  9          Sim_1       30                   0 1995-09-01     1     9
## 10          Sim_1       30                   0 1995-09-01     1     9
## # ... with 168,470 more rows, and 21 more variables: Year <int>,
## #   JulianDay <int>, stepNum <int>, id <int>, x <dbl>, y <dbl>,
## #   cropSpeciesName <chr>, monthBiomass <dbl>, monthYield <dbl>,
## #   monthDirectPar <dbl>, monthDiffusePar <dbl>,
## #   monthDiffuseParIncident <dbl>, monthDiffuseParIntercepted <dbl>,
## #   monthDirectParIncident <dbl>, monthDirectParIntercepted <dbl>,
## #   monthEai <dbl>, monthLai <dbl>, monthRelativeDiffuseParIncident <dbl>,
## #   monthRelativeDirectParIncident <dbl>,
## #   monthRelativeTotalParIncident <dbl>, monthVisibleSky <dbl>
## 
## $cells
## # A tibble: 0 x 0
## 
## $voxels
## # A tibble: 0 x 0
## 
## $variables
## # A tibble: 225 x 6
##     Subject SubjectId               VariableName Units
##       <chr>     <chr>                      <chr> <chr>
##  1 SafeTree     Trees       carbonAboveGroundEff     -
##  2 SafeTree     Trees       aboveGroundCFraction     -
##  3 SafeTree     Trees       carbonBelowGroundEff     -
##  4 SafeTree     Trees captureFactorForDiffuseNir     m
##  5 SafeTree     Trees captureFactorForDiffusePar     m
##  6 SafeTree     Trees  captureFactorForDirectNir     m
##  7 SafeTree     Trees  captureFactorForDirectPar     m
##  8 SafeTree     Trees             carbonBranches    kg
##  9 SafeTree     Trees        carbonCoarseRootSen    kg
## 10 SafeTree     Trees          carbonCoarseRoots    kg
## # ... with 215 more rows, and 2 more variables: Description <chr>,
## #   VariableClass <chr>
## 
## $inputs
…
